<?xml version="1.0" encoding="UTF-8"?>
<svg width="54px" height="63px" viewBox="0 0 54 63" version="1.1" xmlns="http://www.w3.org/2000/svg" xmlns:xlink="http://www.w3.org/1999/xlink">
    <!-- Generator: Sketch 58 (84663) - https://sketch.com -->
    <title>refresh</title>
    <desc>Created with Sketch.</desc>
    <g id="Page-1" stroke="none" stroke-width="1" fill="none" fill-rule="evenodd">
        <g id="Flyer-Video-Copy" transform="translate(-151.000000, -257.000000)" fill="#FFFFFF" fill-rule="nonzero">
            <g id="refresh" transform="translate(151.000000, 257.000000)">
                <path d="M27.8600554,9.29180856 L27.8600554,1.16691688 C27.8644081,0.696967254 27.5848866,0.270680101 27.1520705,0.0874609572 C26.7120453,-0.0937178841 26.2059144,0.0121057935 25.8752494,0.354468514 L13.1074458,13.122272 C12.6573552,13.5749471 12.6573552,14.3061914 13.1074458,14.7588665 L25.8752494,27.52667 C26.0947859,27.7481108 26.3943023,27.8717531 26.7060605,27.8699849 C27.3471234,27.8663123 27.863728,27.3435869 27.8600554,26.7025239 L27.8600554,18.5776322 C36.989864,19.1876826 44.0894358,26.7606045 44.1098388,35.9106801 C44.131194,45.5262166 36.3535617,53.338534 26.7380252,53.3598892 C17.1224887,53.3812443 9.31017128,45.6036121 9.28881612,35.9880756 C9.28881612,35.3470126 8.76921914,34.8274156 8.12815617,34.8274156 L1.16392443,34.8274156 C0.522861461,34.8274156 0.00326448363,35.3470126 0.00326448363,35.9880756 C0.00326448363,50.7319798 11.9556272,62.6843426 26.6995315,62.6843426 C41.4434358,63.004806 53.655597,51.3123778 53.9760605,36.5684736 C54.2963879,21.8244332 42.6039597,9.61240806 27.8600554,9.29180856 Z" id="Path"></path>
            </g>
        </g>
    </g>
</svg>